%YAML 1.1
%TAG !u! tag:unity3d.com,2011:
--- !u!1 &2067238792110611625
GameObject:
  m_ObjectHideFlags: 0
  m_CorrespondingSourceObject: {fileID: 0}
  m_PrefabInstance: {fileID: 0}
  m_PrefabAsset: {fileID: 0}
  serializedVersion: 6
  m_Component:
  - component: {fileID: 4206739141726252236}
  - component: {fileID: 6482625598895266729}
  m_Layer: 0
  m_Name: Fence
  m_TagString: Untagged
  m_Icon: {fileID: 0}
  m_NavMeshLayer: 0
  m_StaticEditorFlags: 0
  m_IsActive: 1
--- !u!4 &4206739141726252236
Transform:
  m_ObjectHideFlags: 0
  m_CorrespondingSourceObject: {fileID: 0}
  m_PrefabInstance: {fileID: 0}
  m_PrefabAsset: {fileID: 0}
  m_GameObject: {fileID: 2067238792110611625}
  m_LocalRotation: {x: 0, y: 0, z: 0, w: 1}
  m_LocalPosition: {x: 0, y: 0, z: 0}
  m_LocalScale: {x: 1, y: 1, z: 1}
  m_Children:
  - {fileID: 8814650250392793061}
  m_Father: {fileID: 0}
  m_RootOrder: 0
  m_LocalEulerAnglesHint: {x: 0, y: 0, z: 0}
--- !u!208 &6482625598895266729
NavMeshObstacle:
  m_ObjectHideFlags: 0
  m_CorrespondingSourceObject: {fileID: 0}
  m_PrefabInstance: {fileID: 0}
  m_PrefabAsset: {fileID: 0}
  m_GameObject: {fileID: 2067238792110611625}
  m_Enabled: 1
  serializedVersion: 3
  m_Shape: 1
  m_Extents: {x: 0.5, y: 0.5, z: 0.15}
  m_MoveThreshold: 0.1
  m_Carve: 1
  m_CarveOnlyStationary: 1
  m_Center: {x: -0.5, y: 0.5, z: 0}
  m_TimeToStationary: 0.5
--- !u!65 &2630521640996137414
BoxCollider:
  m_ObjectHideFlags: 0
  m_CorrespondingSourceObject: {fileID: 0}
  m_PrefabInstance: {fileID: 0}
  m_PrefabAsset: {fileID: 0}
  m_GameObject: {fileID: 8149330733296006495}
  m_Material: {fileID: 0}
  m_IsTrigger: 0
  m_Enabled: 1
  serializedVersion: 2
  m_Size: {x: 0.01, y: 0.001000004, z: 0.010000003}
  m_Center: {x: -0.005, y: -0.000500002, z: 0.0050000013}
--- !u!1001 &9068372568951818254
PrefabInstance:
  m_ObjectHideFlags: 0
  serializedVersion: 2
  m_Modification:
    m_TransformParent: {fileID: 4206739141726252236}
    m_Modifications:
    - target: {fileID: -8679921383154817045, guid: f3b2765d9f8e84585b895500c3efea3f, type: 3}
      propertyPath: m_RootOrder
      value: 0
      objectReference: {fileID: 0}
    - target: {fileID: -8679921383154817045, guid: f3b2765d9f8e84585b895500c3efea3f, type: 3}
      propertyPath: m_LocalPosition.x
      value: 0
      objectReference: {fileID: 0}
    - target: {fileID: -8679921383154817045, guid: f3b2765d9f8e84585b895500c3efea3f, type: 3}
      propertyPath: m_LocalPosition.y
      value: 0
      objectReference: {fileID: 0}
    - target: {fileID: -8679921383154817045, guid: f3b2765d9f8e84585b895500c3efea3f, type: 3}
      propertyPath: m_LocalPosition.z
      value: 0
      objectReference: {fileID: 0}
    - target: {fileID: -8679921383154817045, guid: f3b2765d9f8e84585b895500c3efea3f, type: 3}
      propertyPath: m_LocalRotation.w
      value: 0.7071068
      objectReference: {fileID: 0}
    - target: {fileID: -8679921383154817045, guid: f3b2765d9f8e84585b895500c3efea3f, type: 3}
      propertyPath: m_LocalRotation.x
      value: -0.7071068
      objectReference: {fileID: 0}
    - target: {fileID: -8679921383154817045, guid: f3b2765d9f8e84585b895500c3efea3f, type: 3}
      propertyPath: m_LocalRotation.y
      value: 0
      objectReference: {fileID: 0}
    - target: {fileID: -8679921383154817045, guid: f3b2765d9f8e84585b895500c3efea3f, type: 3}
      propertyPath: m_LocalRotation.z
      value: 0
      objectReference: {fileID: 0}
    - target: {fileID: -8679921383154817045, guid: f3b2765d9f8e84585b895500c3efea3f, type: 3}
      propertyPath: m_LocalEulerAnglesHint.x
      value: -90
      objectReference: {fileID: 0}
    - target: {fileID: -8679921383154817045, guid: f3b2765d9f8e84585b895500c3efea3f, type: 3}
      propertyPath: m_LocalEulerAnglesHint.y
      value: 0
      objectReference: {fileID: 0}
    - target: {fileID: -8679921383154817045, guid: f3b2765d9f8e84585b895500c3efea3f, type: 3}
      propertyPath: m_LocalEulerAnglesHint.z
      value: 0
      objectReference: {fileID: 0}
    - target: {fileID: -7511558181221131132, guid: f3b2765d9f8e84585b895500c3efea3f, type: 3}
      propertyPath: m_Materials.Array.data[0]
      value: 
      objectReference: {fileID: 2100000, guid: 95cdf1dc99f5c4b3ab87005e3d71e064, type: 2}
    - target: {fileID: 919132149155446097, guid: f3b2765d9f8e84585b895500c3efea3f, type: 3}
      propertyPath: m_Name
      value: fence
      objectReference: {fileID: 0}
    m_RemovedComponents: []
  m_SourcePrefab: {fileID: 100100000, guid: f3b2765d9f8e84585b895500c3efea3f, type: 3}
--- !u!1 &8149330733296006495 stripped
GameObject:
  m_CorrespondingSourceObject: {fileID: 919132149155446097, guid: f3b2765d9f8e84585b895500c3efea3f, type: 3}
  m_PrefabInstance: {fileID: 9068372568951818254}
  m_PrefabAsset: {fileID: 0}
--- !u!4 &8814650250392793061 stripped
Transform:
  m_CorrespondingSourceObject: {fileID: -8679921383154817045, guid: f3b2765d9f8e84585b895500c3efea3f, type: 3}
  m_PrefabInstance: {fileID: 9068372568951818254}
  m_PrefabAsset: {fileID: 0}
