%YAML 1.1
%TAG !u! tag:unity3d.com,2011:
--- !u!114 &11400000
MonoBehaviour:
  m_ObjectHideFlags: 0
  m_CorrespondingSourceObject: {fileID: 0}
  m_PrefabInstance: {fileID: 0}
  m_PrefabAsset: {fileID: 0}
  m_GameObject: {fileID: 0}
  m_Enabled: 1
  m_EditorHideFlags: 0
  m_Script: {fileID: 11500000, guid: aec0164b793cdf049b2208938af50159, type: 3}
  m_Name: KLM
  m_EditorClassIdentifier: 
  airplanePrefab: {fileID: 5684232133528882782, guid: df3ed748b33e347d093c5eb104e90311, type: 3}
  planeNumber: 0
  aircraftType: TheBetterPlane
  airplaneBrand: KLM
